{
  var
  G: int;
  B: string;
  Z: array [100] of int;
  A: array [12] of string;
  
  if ( G<5 ) then {
     var
     T: int;
     T=G;
     B=B+"azertyuiop";
    } else {
    var
    C: int;
    X: int;
    Z: int;
    Y: int;
    X=0;
    while (X < 100) do {
    var
	  A: string;
	X=X+1;
	A=A+"qsdfghjklm";
      }
  }
  G = 8;
}
